<svg xmlns="http://www.w3.org/2000/svg" width="20" height="20" viewBox="0 0 20 20">
    <g fill="none" fill-rule="evenodd" transform="translate(-2 -2)">
        <circle cx="12" cy="12" r="10" fill="#5A5A5A"/>
        <circle cx="12" cy="12" r="7.5" stroke="#FFF"/>
        <path stroke="#FFF" d="M14.275 15.131l-.435-2.533 1.84-1.794-2.543-.37L12 8.13l-1.137 2.304-2.544.37 1.84 1.794-.434 2.533L12 13.935l2.275 1.196z"/>
    </g>
</svg>
