<svg xmlns="http://www.w3.org/2000/svg" width="20" height="19" viewBox="0 0 20 19">
    <g fill="#DF0F0F" fill-rule="evenodd">
        <path fill-rule="nonzero" d="M15.748 0c1.147 0 2.081.943 2.093 2.094v1.393a.503.503 0 1 1-1.004 0V2.094c0-.602-.485-1.09-1.085-1.09H4.264c-.6 0-1.085.488-1.085 1.09v9.556L4.5 10.323a.501.501 0 0 1 .706.709l-2.175 2.184a.496.496 0 0 1-.355.147.496.496 0 0 1-.355-.147L.147 11.032a.501.501 0 0 1 .706-.71l1.318 1.324V2.094A2.09 2.09 0 0 1 4.256 0h11.492zm1.228 5.708a.506.506 0 0 1 .702 0l2.175 2.185a.501.501 0 0 1-.706.709l-1.322-1.328v9.552a2.09 2.09 0 0 1-2.085 2.094H4.252a2.09 2.09 0 0 1-2.085-2.094v-1.393a.503.503 0 1 1 1.004 0v1.393c0 .602.485 1.09 1.085 1.09h11.492c.6 0 1.085-.488 1.085-1.09V7.274l-1.322 1.328a.496.496 0 0 1-.355.147.501.501 0 0 1-.355-.856l2.175-2.185z"/>
        <path d="M10.27 11.254h-.84l-.708-1.608H7.78v1.608H7V7h1.794c1.014 0 1.476.636 1.476 1.32 0 .57-.312 1.02-.78 1.194l.78 1.74zM9.496 8.32c0-.342-.264-.642-.702-.642h-1.02V8.95h1.032c.438 0 .69-.228.69-.63zm4.314 1.368c0 .612-.186 1.086-.558 1.392a1.175 1.175 0 0 1-.762.252c-.372 0-.672-.132-.816-.306v1.422h-.75V8.134h.648l.048.342c.186-.288.534-.414.876-.414.312 0 .564.108.756.264.372.306.558.774.558 1.362zm-.762.012c0-.27-.042-.558-.198-.762a.616.616 0 0 0-.504-.246c-.588 0-.708.558-.708 1.008 0 .45.12 1.002.708 1.002a.616.616 0 0 0 .504-.246c.156-.204.198-.486.198-.756z"/>
    </g>
</svg>
