<svg xmlns="http://www.w3.org/2000/svg" width="16" height="20" viewBox="0 0 16 20">
    <g fill="#5A5A5A" fill-rule="evenodd">
        <path fill-rule="nonzero" d="M15.864.505A.504.504 0 0 0 15.36 0H3.115A3.118 3.118 0 0 0 0 3.114v13.772C0 18.606 1.4 20 3.115 20h12.249a.504.504 0 0 0 .504-.505V5.727a.504.504 0 0 0-.504-.504H3.114a2.114 2.114 0 0 1-2.109-2.11c0-1.16.948-2.108 2.11-2.108h12.249c.275 0 .5-.226.5-.5zM3.114 6.228H14.86v12.767H3.115a2.114 2.114 0 0 1-2.11-2.109V5.403a3.096 3.096 0 0 0 2.11.825zM3.505 3H15a.504.504 0 1 1 0 1.01H3.505a.504.504 0 1 1 0-1.01z"/>
        <path d="M7.49 13.67v-3.26H6.14c-.5 0-.74.13-.83.52h-.15c0-.66-.01-1.25-.01-1.74.82.01 1.75.01 2.52.01h1.12c.86 0 1.78 0 2.52-.01v1.74h-.16c-.09-.41-.32-.52-.81-.52H8.99v3.26c0 2.81 0 3.18.48 3.19v.15C9.14 17 8.7 17 8.25 17c-.48 0-.94 0-1.22.01v-.15c.46-.05.46-.39.46-3.19z"/>
    </g>
</svg>
